[
    {
        "languageName": "English",
        "languageHash": "599e0b9fae653a964909ff84"
    },
    {
        "languageName": "Brazilian",
        "languageHash": "599e0baa5bafe369aa0d14a3"
    },
    {
        "languageName": "Chinese",
        "languageHash": "599e0bb6ae653a8e571fc294"
    },
    {
        "languageName": "Turkish",
        "languageHash": "599e0bc45bafe3718933adc2"
    },
    {
        "languageName": "Czech",
        "languageHash": "599e0bda5bafe375b43b3013"
    },
    {
        "languageName": "French",
        "languageHash": "599e0be6ae653aa5e8611863"
    },
    {
        "languageName": "German",
        "languageHash": "599e0be35bafe375ee5f9b72"
    },
    {
        "languageName": "Spanish",
        "languageHash": "599e0bec5bafe375e90b3cc4"
    },
    {
        "languageName": "Finnish",
        "languageHash": "599e0bf65bafe375e713fab3"
    },
    {
        "languageName": "Polish",
        "languageHash": "599e0c0cae653a964909ff85"
    },
    {
        "languageName": "Korean",
        "languageHash": "599e0c1c5bafe369756c7754"
    },
    {
        "languageName": "Russian",
        "languageHash": "599e0c1fae653a943c7eb2a4"
    },
    {
        "languageName": "English",
        "languageHash": "599e0c4eae653aa5e121f273"
    },
    {
        "languageName": "Vietnamese",
        "languageHash": "599e0c5c5bafe369aa0d14a4"
    },
    {
        "languageName": "Portugese",
        "languageHash": "599e0c15ae653a8e571fc295"
    },
    {
        "languageName": "Italian",
        "languageHash": "599e0c085bafe375e713fab4"
    },
    {
        "languageName": "Japanese",
        "languageHash": "599e0c115bafe36ca63c31e4"
    }
]